{
    "name": "taotinphat",
    "description": "taotinphat",
    "extends": "",
    "asset-path": "themes/taotinphat/assets",
    "views-path": "taotinphat/resources/views",
    "namespace": "Themes\\Taotinphat\\",
    "provider": "Themes\\Taotinphat\\ThemeServiceProvider"
}
