{
    "name": "tin47",
    "description": "tin47",
    "extends": "",
    "asset-path": "themes/tin47/assets",
    "views-path": "tin47/views",
    "namespace": "Themes\\Tin47\\",
    "provider": "Themes\\Tin47\\ThemeServiceProvider"
}
